<?xml version="1.0" encoding="utf-8"?>
<!-- Generator: Adobe Illustrator 16.0.0, SVG Export Plug-In . SVG Version: 6.00 Build 0)  -->
<!DOCTYPE svg PUBLIC "-//W3C//DTD SVG 1.1//EN" "http://www.w3.org/Graphics/SVG/1.1/DTD/svg11.dtd">
<svg version="1.1" id="Layer_1" xmlns="http://www.w3.org/2000/svg" xmlns:xlink="http://www.w3.org/1999/xlink" x="0px" y="0px"
	 width="25px" height="25px" viewBox="0 0 25 25" enable-background="new 0 0 25 25" xml:space="preserve">
<title>royal mini</title>
<desc>Created with Sketch.</desc>
<g id="Page-1">
	<g id="royal-mini">
		<path id="Rectangle" fill="#F5A622" d="M2.4,0.049h13.8c4.86,0,8.8,3.94,8.8,8.8V22.6c0,1.326-1.074,2.4-2.4,2.4H8.8
			C3.94,25,0,21.061,0,16.2V2.449C0,1.123,1.075,0.049,2.4,0.049z"/>
		<path id="R" display="none" fill="#FFFFFF" d="M15.013,21.479l-3.948-6.877h-1.006v6.877H5.645V3.269h7.536
			c1.445,0,2.667,0.249,3.665,0.747c0.997,0.498,1.746,1.181,2.244,2.048c0.5,0.867,0.749,1.858,0.749,2.975
			c0,1.322-0.366,2.447-1.097,3.374c-0.731,0.927-1.794,1.563-3.188,1.907l4.336,7.16H15.013z M10.058,11.587h2.735
			c0.877,0,1.523-0.193,1.935-0.58c0.414-0.386,0.619-0.957,0.619-1.712c0-0.721-0.21-1.288-0.631-1.7
			c-0.422-0.412-1.063-0.618-1.923-0.618h-2.735V11.587z"/>
	</g>
</g>
</svg>
