<?xml version="1.0" encoding="utf-8"?>
<!-- Generator: Adobe Illustrator 16.0.0, SVG Export Plug-In . SVG Version: 6.00 Build 0)  -->
<!DOCTYPE svg PUBLIC "-//W3C//DTD SVG 1.1//EN" "http://www.w3.org/Graphics/SVG/1.1/DTD/svg11.dtd">
<svg version="1.1" id="Layer_1" xmlns="http://www.w3.org/2000/svg" xmlns:xlink="http://www.w3.org/1999/xlink" x="0px" y="0px"
	 width="109px" height="29px" viewBox="0 0 109 29" enable-background="new 0 0 109 29" xml:space="preserve">
<title>royal</title>
<desc>Created with Sketch.</desc>
<g id="Page-1">
	<g id="royal">
		<path id="K" display="none" fill="#515151" d="M36.734,26.064h-2.817V8.262h6.237c1.886,0,3.342,0.449,4.371,1.345
			c1.028,0.897,1.542,2.176,1.542,3.839c0,0.92-0.226,1.714-0.678,2.378c-0.452,0.664-1.111,1.195-1.977,1.596
			c0.951,0.319,1.634,0.839,2.053,1.561c0.417,0.72,0.625,1.607,0.625,2.658v1.479c0,0.521,0.062,1.03,0.186,1.526
			c0.123,0.498,0.332,0.877,0.625,1.139v0.281h-2.899c-0.309-0.271-0.508-0.693-0.598-1.271c-0.089-0.579-0.133-1.146-0.133-1.699
			v-1.432c0-0.912-0.248-1.639-0.742-2.176c-0.494-0.538-1.174-0.809-2.041-0.809h-3.754V26.064 M36.734,16.295h3.269
			c1.128,0,1.952-0.229,2.469-0.686c0.517-0.457,0.776-1.154,0.776-2.091c0-0.896-0.255-1.6-0.765-2.109
			c-0.51-0.51-1.287-0.765-2.33-0.765h-3.42L36.734,16.295L36.734,16.295z M48.755,19.327c0-1.966,0.51-3.579,1.53-4.84
			c1.035-1.265,2.438-1.896,4.208-1.896c1.803,0,3.212,0.633,4.231,1.896c1.027,1.255,1.543,2.869,1.543,4.84v0.257
			c0,1.989-0.516,3.611-1.543,4.866c-1.021,1.248-2.424,1.87-4.208,1.87c-1.793,0-3.204-0.625-4.231-1.881
			c-1.02-1.254-1.53-2.875-1.53-4.854V19.327z M51.572,19.584c0,1.287,0.24,2.34,0.718,3.154c0.472,0.807,1.213,1.21,2.226,1.21
			c0.981,0,1.716-0.403,2.202-1.21c0.494-0.814,0.742-1.867,0.742-3.154v-0.257c0-1.263-0.248-2.304-0.742-3.117
			c-0.485-0.823-1.228-1.235-2.226-1.235c-0.981,0-1.715,0.412-2.203,1.235c-0.479,0.824-0.718,1.863-0.718,3.117L51.572,19.584
			L51.572,19.584z M66.7,20.758l0.278,1.32h0.07l2.745-9.243h3.085l-5.193,15.233c-0.332,0.922-0.801,1.709-1.402,2.361
			c-0.604,0.652-1.456,0.979-2.563,0.979c-0.232,0-0.479-0.024-0.748-0.073c-0.267-0.049-0.522-0.106-0.771-0.171l0.313-2.299
			c0.102,0.009,0.241,0.021,0.428,0.035c0.188,0.019,0.324,0.024,0.418,0.024c0.51,0,0.918-0.184,1.225-0.55
			c0.305-0.367,0.555-0.791,0.747-1.271l0.463-1.198l-4.554-13.071h3.07L66.7,20.758z M81.934,26.064
			c-0.101-0.334-0.184-0.659-0.25-0.979c-0.064-0.315-0.108-0.636-0.133-0.952c-0.387,0.618-0.895,1.139-1.523,1.561
			c-0.631,0.418-1.336,0.627-2.116,0.627c-1.308,0-2.31-0.354-3.009-1.063c-0.699-0.71-1.049-1.684-1.049-2.922
			c0-1.281,0.479-2.277,1.438-2.99c0.958-0.714,2.308-1.068,4.045-1.068h2.19v-1.162c0-0.691-0.193-1.233-0.578-1.625
			c-0.387-0.393-0.939-0.587-1.658-0.587c-0.643,0-1.152,0.162-1.529,0.49c-0.379,0.324-0.568,0.744-0.568,1.258H74.48l-0.012-0.072
			c-0.054-1.044,0.389-1.969,1.327-2.776c0.938-0.806,2.161-1.21,3.669-1.21c1.46,0,2.641,0.391,3.535,1.174
			c0.896,0.783,1.346,1.907,1.346,3.375v5.883c0,0.545,0.035,1.068,0.104,1.568c0.069,0.502,0.182,0.993,0.336,1.475L81.934,26.064
			L81.934,26.064z M78.479,23.938c0.713,0,1.352-0.188,1.92-0.563c0.565-0.374,0.942-0.804,1.129-1.284v-1.956H79.29
			c-0.819,0-1.461,0.214-1.925,0.642c-0.463,0.43-0.695,0.932-0.695,1.511c0,0.507,0.157,0.907,0.471,1.205
			C77.452,23.788,77.896,23.938,78.479,23.938z M90.303,26.064h-2.816V6.99h2.816V26.064z M106.637,8.262v11.933
			c0,1.976-0.609,3.488-1.832,4.543c-1.221,1.058-2.816,1.584-4.787,1.584c-1.933,0-3.496-0.528-4.693-1.588
			c-1.199-1.063-1.799-2.572-1.799-4.539V8.262h2.817v11.933c0,1.248,0.331,2.187,0.996,2.813s1.56,0.941,2.679,0.941
			c1.16,0,2.084-0.314,2.771-0.941c0.688-0.628,1.031-1.565,1.031-2.813V8.262H106.637z M112.979,26.064h-2.816V8.262h2.816V26.064z
			"/>
		<g id="Group">
			<path id="Rectangle" fill="#F5A622" d="M3.363,0.625h14.245c5.017,0,9.083,4.29,9.083,9.582v14.971
				c0,1.443-1.11,2.613-2.477,2.613H9.969c-5.017,0-9.083-4.289-9.083-9.581V3.238C0.886,1.794,1.996,0.625,3.363,0.625z"/>
			<path id="Rectangle_1_" fill="#FDBC0A" d="M0.886,0.625h8.34c4.588,0,8.309,3.924,8.309,8.764v6.149
				c0,1.444-1.108,2.612-2.478,2.612H9.209c-4.597,0-8.324-3.931-8.324-8.779V0.625H0.886z"/>
			<path id="R" display="none" fill="#FFFFFF" d="M16.383,23.957l-4.076-7.487h-1.038v7.487H6.713V4.131h7.779
				c1.491,0,2.753,0.271,3.783,0.813c1.03,0.542,1.802,1.286,2.317,2.23c0.515,0.944,0.773,2.022,0.773,3.239
				c0,1.439-0.378,2.664-1.132,3.674c-0.754,1.009-1.851,1.702-3.29,2.074l4.475,7.798h-5.035V23.957z M11.268,13.188h2.823
				c0.905,0,1.571-0.21,1.999-0.632c0.426-0.42,0.639-1.042,0.639-1.864c0-0.785-0.217-1.402-0.653-1.851
				c-0.435-0.448-1.097-0.672-1.985-0.672h-2.823V13.188z"/>
			<path fill="none" enable-background="new    " d="z"/>
		</g>
	</g>
</g>
<text transform="matrix(1.0611 0 0 1 29.9653 20.0889)" fill="#595850" font-family="'BerlinSansFB-Reg'" font-size="16.7736">ESCOLA</text>
</svg>
